…
What is tidy data?
==================

In short, tidy data has one row per observation, and one column per
measurement. For example, the `who` data set is well organized and
compact, but it is does not meet the definition of tidy:

    # load the who data set from the tidyr package
    require(tidyr)
    data(who)

    # display who
    who

    ## # A tibble: 7,240 x 60
    ##    country     iso2  iso3   year new_sp_m014 new_sp_m1524 new_sp_m2534
    ##    <chr>       <chr> <chr> <int>       <int>        <int>        <int>
    ##  1 Afghanistan AF    AFG    1980          NA           NA           NA
    ##  2 Afghanistan AF    AFG    1981          NA           NA           NA
    ##  3 Afghanistan AF    AFG    1982          NA           NA           NA
    ##  4 Afghanistan AF    AFG    1983          NA           NA           NA
    ##  5 Afghanistan AF    AFG    1984          NA           NA           NA
    ##  6 Afghanistan AF    AFG    1985          NA           NA           NA
    ##  7 Afghanistan AF    AFG    1986          NA           NA           NA
    ##  8 Afghanistan AF    AFG    1987          NA           NA           NA
    ##  9 Afghanistan AF    AFG    1988          NA           NA           NA
    ## 10 Afghanistan AF    AFG    1989          NA           NA           NA
    ## # ... with 7,230 more rows, and 53 more variables: new_sp_m3544 <int>,
    ## #   new_sp_m4554 <int>, new_sp_m5564 <int>, new_sp_m65 <int>,
    ## #   new_sp_f014 <int>, new_sp_f1524 <int>, new_sp_f2534 <int>,
    ## #   new_sp_f3544 <int>, new_sp_f4554 <int>, new_sp_f5564 <int>,
    ## #   new_sp_f65 <int>, new_sn_m014 <int>, new_sn_m1524 <int>,
    ## #   new_sn_m2534 <int>, new_sn_m3544 <int>, new_sn_m4554 <int>,
    ## #   new_sn_m5564 <int>, new_sn_m65 <int>, new_sn_f014 <int>,
    ## #   new_sn_f1524 <int>, new_sn_f2534 <int>, new_sn_f3544 <int>,
    ## #   new_sn_f4554 <int>, new_sn_f5564 <int>, new_sn_f65 <int>,
…
                   diagnosis = str_split_fixed(group, '_', 2)[,1], # grab the diagnosis type
                   
                   sexAgeCat = str_split_fixed(group, '_', 2)[,2], # grab sex/age category
                   sex = substr(sexAgeCat, 1, 1),                  #    first character is sex
                   ageCat = substr(sexAgeCat, 2, 5)) %>%           #    next 4 characters are age category
        
            # drop rows with missing incidence
            filter(!is.na(incidence)) %>%

            # drop redundant columns
            select(-group, -iso2, -iso3, -sexAgeCat)

    who2

    ## # A tibble: 76,046 x 6
    ##    country      year incidence diagnosis sex   ageCat
    ##    <chr>       <int>     <int> <chr>     <chr> <chr> 
    ##  1 Afghanistan  1997         0 sp        m     014   
    ##  2 Afghanistan  1998        30 sp        m     014   
    ##  3 Afghanistan  1999         8 sp        m     014   
    ##  4 Afghanistan  2000        52 sp        m     014   
    ##  5 Afghanistan  2001       129 sp        m     014   
    ##  6 Afghanistan  2002        90 sp        m     014   
    ##  7 Afghanistan  2003       127 sp        m     014   
    ##  8 Afghanistan  2004       139 sp        m     014   
    ##  9 Afghanistan  2005       151 sp        m     014   
    ## 10 Afghanistan  2006       193 sp        m     014   
    ## # ... with 76,036 more rows
…
